<?xml version="1.0" encoding="UTF-8" standalone="no"?>
<svg width="75px" height="75px" viewBox="0 0 75 75" version="1.1" xmlns="http://www.w3.org/2000/svg" xmlns:xlink="http://www.w3.org/1999/xlink" xmlns:sketch="http://www.bohemiancoding.com/sketch/ns">
    <!-- Generator: Sketch 3.0.4 (8054) - http://www.bohemiancoding.com/sketch -->
    <title>Press</title>
    <desc>Created with Sketch.</desc>
    <defs></defs>
    <g id="Page-1" stroke="none" stroke-width="1" fill="none" fill-rule="evenodd" sketch:type="MSPage">
        <g id="Artboard-2" sketch:type="MSArtboardGroup" transform="translate(-356.000000, -317.000000)" fill="#FFFFFF">
            <g id="Group" sketch:type="MSLayerGroup" transform="translate(36.000000, 184.000000)">
                <g id="Education" transform="translate(320.000000, 133.000000)" sketch:type="MSShapeGroup">
                    <g id="Press">
                        <g id="Group">
                            <path d="M38,0 C16.8,0 0,16.8 0,38 C0,58.4 17,75 38,75 C58.2,75 75,58.2 75,38 C75,17 58.4,0 38,0 L38,0 Z M38,71 C19.1,71 4,56.1 4,38 C4,19 19,4 38,4 C56.1,4 71,19.1 71,38 C71,56 56,71 38,71 L38,71 Z" id="Shape"></path>
                            <rect id="Rectangle-path" x="20" y="48" width="15" height="2"></rect>
                            <rect id="Rectangle-path" x="20" y="44" width="16" height="2"></rect>
                            <rect id="Rectangle-path" x="20" y="40" width="13" height="2"></rect>
                            <rect id="Rectangle-path" x="20" y="36" width="16" height="2"></rect>
                            <rect id="Rectangle-path" x="39" y="48" width="15" height="2"></rect>
                            <rect id="Rectangle-path" x="39" y="44" width="16" height="2"></rect>
                            <rect id="Rectangle-path" x="39" y="40" width="13" height="2"></rect>
                            <rect id="Rectangle-path" x="39" y="36" width="16" height="2"></rect>
                            <path d="M16,18 L14,18 L14,20 L14,55 L14,57 L16,57 L59,57 L61,57 L61,55 L61,20 L61,18 L59,18 L16,18 L16,18 Z M57,22 L57,53 L18,53 L18,22 L57,22 L57,22 Z" id="Shape"></path>
                            <path d="M53,34 L55,34 L55,32 L55,26 L55,24 L53,24 L22,24 L20,24 L20,26 L20,32 L20,34 L22,34 L53,34 L53,34 Z M24,30 L24,28 L51,28 L51,30 L24,30 L24,30 Z" id="Shape"></path>
                        </g>
                    </g>
                </g>
            </g>
        </g>
    </g>
</svg>