<?xml version="1.0" encoding="UTF-8" standalone="no"?>
<svg width="180px" height="174px" viewBox="0 0 180 174" version="1.1" xmlns="http://www.w3.org/2000/svg" xmlns:xlink="http://www.w3.org/1999/xlink" xmlns:sketch="http://www.bohemiancoding.com/sketch/ns">
    <!-- Generator: Sketch 3.0.4 (8054) - http://www.bohemiancoding.com/sketch -->
    <title>Imported Layers 2</title>
    <desc>Created with Sketch.</desc>
    <defs></defs>
    <g id="Page-1" stroke="none" stroke-width="1" fill="none" fill-rule="evenodd" sketch:type="MSPage">
        <g id="Careers-Landing" sketch:type="MSArtboardGroup" transform="translate(-310.000000, -2008.000000)" fill="#4CA580">
            <g id="Peapod,-1989.-+-Group" sketch:type="MSLayerGroup" transform="translate(305.000000, 1422.000000)">
                <g id="Imported-Layers-+-­“Amaze-and-Delight”-3-+-Imported-Layers-2" transform="translate(5.000000, 586.000000)" sketch:type="MSShapeGroup">
                    <g id="Imported-Layers-2">
                        <path d="M107.8252,108.4102 C107.9122,106.9642 107.9922,105.5082 108.0622,104.0402 C106.2032,104.8662 105.2772,106.7312 104.8202,108.5722 C105.8282,108.5222 106.8282,108.4682 107.8252,108.4102" id="Fill-3"></path>
                        <path d="M77.7559,108.8828 C76.2289,108.3028 74.5189,108.1318 72.6909,108.7188 C74.3649,108.7858 76.0559,108.8408 77.7559,108.8828" id="Fill-5"></path>
                        <path d="M86.752,108.9404 C44.697,108.9404 0,101.3384 0,87.2494 C0,80.8304 8.686,75.5254 25.817,71.4844 L26.799,75.6454 C10.193,79.5634 4.275,84.2084 4.275,87.2494 C4.275,94.5214 35.652,104.6654 86.752,104.6654 C137.852,104.6654 169.229,94.5214 169.229,87.2494 C169.229,84.1554 163.152,79.4444 146.1,75.5024 L147.065,71.3364 C164.608,75.3934 173.503,80.7464 173.503,87.2494 C173.503,101.3384 128.807,108.9404 86.752,108.9404" id="Fill-7"></path>
                        <path d="M180,87.248 C180,92.018 176.132,95.883 171.365,95.883 C166.6,95.883 162.731,92.018 162.731,87.248 C162.731,82.479 166.6,78.614 171.365,78.614 C176.132,78.614 180,82.479 180,87.248" id="Fill-9"></path>
                        <path d="M143.5371,148.9062 C138.1061,148.9072 130.3101,145.7812 120.2341,139.5502 L122.6561,135.6352 C137.0971,144.5622 144.5671,145.3852 146.5731,143.3752 C151.6681,138.2812 136.6281,109.0342 100.5681,72.9742 C64.5061,36.9112 35.2551,21.8732 30.1681,26.9682 C28.1581,28.9772 28.9801,36.4522 37.9121,50.9032 L33.9961,53.3252 C24.6951,38.2762 22.3101,28.3132 26.9101,23.7122 C31.5721,19.0522 41.7151,21.5492 57.0591,31.1342 C71.1131,39.9122 87.7211,53.6152 103.8241,69.7182 C119.9281,85.8202 133.6301,102.4282 142.4081,116.4812 C151.9931,131.8272 154.4901,141.9702 149.8301,146.6312 C148.3111,148.1482 146.2111,148.9062 143.5371,148.9062" id="Fill-11"></path>
                        <path d="M34.1885,153.876 C31.5565,153.876 29.4925,153.134 28.0025,151.644 C18.0425,141.683 44.2715,104.702 74.0085,74.964 C90.1035,58.87 106.7015,45.176 120.7455,36.403 C136.0155,26.864 146.0915,24.36 150.6895,28.959 C155.2275,33.497 152.8375,43.386 143.5855,58.351 L139.9495,56.103 C148.9175,41.597 149.8165,34.132 147.6665,31.982 C145.4785,29.796 137.8515,30.76 123.0095,40.029 C109.2325,48.636 92.9045,62.116 77.0325,77.986 C40.9005,114.12 25.8845,143.48 31.0265,148.62 C33.1765,150.771 40.6485,149.872 55.1665,140.898 L57.4145,144.536 C47.3505,150.756 39.5805,153.876 34.1885,153.876" id="Fill-13"></path>
                        <path d="M61.5078,33.9561 C59.4918,32.6101 57.5318,31.3671 55.6418,30.2331 C35.4858,41.2751 21.7868,62.6901 21.7868,87.2491 C21.7868,92.4291 22.4138,97.4621 23.5648,102.2951 C25.6538,102.8521 27.8608,103.3781 30.1738,103.8721 C28.6208,98.5971 27.7728,93.0201 27.7728,87.2491 C27.7728,63.7551 41.5828,43.4331 61.5078,33.9561" id="Fill-15"></path>
                        <path d="M101.8555,24.0742 C97.0055,22.9152 91.9525,22.2832 86.7515,22.2832 C76.5485,22.2832 66.8915,24.6542 58.2915,28.8642 C60.2205,30.0532 62.2105,31.3462 64.2555,32.7382 C71.1925,29.8642 78.7895,28.2682 86.7515,28.2682 C92.5375,28.2682 98.1255,29.1212 103.4115,30.6802 C102.9235,28.3582 102.4045,26.1532 101.8555,24.0742" id="Fill-17"></path>
                        <path d="M116.1035,36.1279 C118.0565,34.8569 119.9575,33.6829 121.8065,32.6049 C116.5595,29.2299 110.8045,26.5799 104.6755,24.8169 C105.2105,26.9549 105.7165,29.2119 106.1915,31.5769 C109.6545,32.7889 112.9675,34.3209 116.1035,36.1279" id="Fill-19"></path>
                        <path d="M124.1621,34.1973 C122.3561,35.2283 120.4781,36.3733 118.5481,37.6143 C134.8831,48.1083 145.7301,66.4303 145.7301,87.2493 C145.7301,93.0913 144.8631,98.7303 143.2751,104.0633 C145.5841,103.5853 147.7911,103.0763 149.8831,102.5363 C151.0701,97.6313 151.7161,92.5143 151.7161,87.2493 C151.7161,65.3503 140.8141,45.9663 124.1621,34.1973" id="Fill-21"></path>
                        <path d="M37.0186,118.8965 C35.7706,120.8225 34.6236,122.6905 33.5806,124.4915 C45.3376,141.2395 64.7796,152.2125 86.7516,152.2125 C91.9636,152.2125 97.0316,151.5905 101.8896,150.4245 C102.4326,148.3445 102.9456,146.1375 103.4276,143.8225 C98.1376,145.3855 92.5416,146.2285 86.7516,146.2285 C65.8706,146.2285 47.4976,135.3145 37.0186,118.8965" id="Fill-23"></path>
                        <path d="M35.5596,116.4717 C33.7836,113.3697 32.2726,110.0977 31.0766,106.6767 C28.7126,106.1957 26.4566,105.6807 24.3106,105.1347 C26.0546,111.2147 28.6706,116.9297 32.0026,122.1437 C33.0896,120.3117 34.2776,118.4177 35.5596,116.4717" id="Fill-25"></path>
                        <path d="M139.9297,112.6973 C133.1907,126.7283 121.0647,137.6933 106.2497,142.9043 C105.7757,145.2633 105.2717,147.5243 104.7347,149.6743 C121.4197,144.8533 135.3617,133.5053 143.6137,118.5853 C142.4947,116.6863 141.2657,114.7223 139.9297,112.6973" id="Fill-27"></path>
                        <path d="M145.0156,115.9033 C146.6756,112.5423 148.0626,109.0223 149.1266,105.3653 C146.9786,105.8933 144.7226,106.3923 142.3656,106.8583 C142.0006,107.8883 141.5996,108.9003 141.1796,109.9033 C142.5566,111.9543 143.8396,113.9593 145.0156,115.9033" id="Fill-29"></path>
                        <path d="M86.752,174 C80.333,174 75.031,165.318 70.99,148.194 L75.152,147.213 C79.068,163.812 83.711,169.725 86.752,169.725 C94.023,169.725 104.166,138.349 104.166,87.249 C104.166,36.149 94.023,4.772 86.752,4.772 C83.711,4.772 79.063,10.69 75.143,27.302 L70.981,26.318 C75.025,9.185 80.332,0.496 86.752,0.496 C100.84,0.496 108.441,45.193 108.441,87.249 C108.441,129.304 100.84,174 86.752,174" id="Fill-31"></path>
                    </g>
                </g>
            </g>
        </g>
    </g>
</svg>